{
	"info": {
		"_postman_id": "177eb590-4423-4aaa-9f7a-de75e373b53b",
		"name": "New Collection",
		"schema": "https://schema.getpostman.com/json/collection/v2.1.0/collection.json",
		"_exporter_id": "1597425"
	},
	"item": [
		{
			"name": "Encriptador frases prueba tecnica mainsoft",
			"protocolProfileBehavior": {
				"disableBodyPruning": true
			},
			"request": {
				"method": "GET",
				"header": [],
				"body": {
					"mode": "raw",
					"raw": "{\n   \"key\" : 20\n    \n}",
					"options": {
						"raw": {
							"language": "json"
						}
					}
				},
				"url": {
					"raw": "http://localhost:8001/api/crypto",
					"protocol": "http",
					"host": [
						"localhost"
					],
					"port": "8001",
					"path": [
						"api",
						"crypto"
					]
				}
			},
			"response": [
				{
					"name": "Encriptador frases prueba tecnica mainsoft",
					"originalRequest": {
						"method": "GET",
						"header": [],
						"body": {
							"mode": "raw",
							"raw": "{\n    \"phrase\": \"CASA\",\n    \"key\": 5\n}",
							"options": {
								"raw": {
									"language": "json"
								}
							}
						},
						"url": {
							"raw": "http://localhost:8001/api/crypto",
							"protocol": "http",
							"host": [
								"localhost"
							],
							"port": "8001",
							"path": [
								"api",
								"crypto"
							]
						}
					},
					"_postman_previewlanguage": null,
					"header": null,
					"cookie": [],
					"body": "{\n    \"encrypt\": \"HFXF\"\n}"
				},
				{
					"name": "Encriptador frases prueba tecnica mainsoft",
					"originalRequest": {
						"method": "GET",
						"header": [],
						"body": {
							"mode": "raw",
							"raw": "{\n    \"phrase\": \"TU\",\n    \"key\": 10\n}",
							"options": {
								"raw": {
									"language": "json"
								}
							}
						},
						"url": {
							"raw": "http://localhost:8001/api/crypto",
							"protocol": "http",
							"host": [
								"localhost"
							],
							"port": "8001",
							"path": [
								"api",
								"crypto"
							]
						}
					},
					"_postman_previewlanguage": null,
					"header": null,
					"cookie": [],
					"body": null
				},
				{
					"name": "Encriptador frases prueba tecnica mainsoft",
					"originalRequest": {
						"method": "GET",
						"header": [],
						"body": {
							"mode": "raw",
							"raw": "{\n   \n}",
							"options": {
								"raw": {
									"language": "json"
								}
							}
						},
						"url": {
							"raw": "http://localhost:8001/api/crypto",
							"protocol": "http",
							"host": [
								"localhost"
							],
							"port": "8001",
							"path": [
								"api",
								"crypto"
							]
						}
					},
					"_postman_previewlanguage": null,
					"header": null,
					"cookie": [],
					"body": "{\n    \"encrypt\": \"DANIEL\"\n}"
				}
			]
		}
	]
}